{
  "provider": {
    "name": "hero-provider"
  },
  "consumer": {
    "name": "hero-consumer"
  },
  "interactions": [
    {
      "description": "Used to get the course details according some params.",
      "request": {
        "method": "GET",
        "path": "/",
        "headers": {
          "Authorization": "bearer Gy"
        },
        "matchingRules": {
          "$.headers.Authorization": {
            "regex": "bearer [a-zA-Z0-9]+"
          }
        }
      },
      "response": {
        "status": 200,
        "headers": {
          "Content-Type": "application/json; charset=utf-8"
        },
        "body": {
          "serverName": "node-provider",
          "env": "development"
        }
      }
    }
  ],
  "metadata": {
    "pact-specification": {
      "version": "3.0.0"
    },
    "pact-jvm": {
      "version": "3.3.6"
    }
  }
}
